…
    ## Warning: There were 43 warnings in `mutate()`.
    ## The first warning was:
    ## ℹ In argument: `tidied = map(fit, ~tidy(.x, conf.int = TRUE, exponentiate =
    ##   TRUE))`.
    ## ℹ In group 1: `city_state = "Albuquerque, NM"`.
    ## Caused by warning:
    ## ! glm.fit: fitted probabilities numerically 0 or 1 occurred
    ## ℹ Run `dplyr::last_dplyr_warnings()` to see the 42 remaining warnings.

``` r
city_ORs
```

    ## # A tibble: 47 × 4
    ## # Groups:   city_state [47]
    ##    city_state      estimate conf.low conf.high
    ##    <chr>              <dbl>    <dbl>     <dbl>
    ##  1 Albuquerque, NM    1.77     0.825     3.76 
    ##  2 Atlanta, GA        1.00     0.680     1.46 
    ##  3 Baltimore, MD      0.426    0.324     0.558
    ##  4 Baton Rouge, LA    0.381    0.204     0.684
    ##  5 Birmingham, AL     0.870    0.571     1.31 
    ##  6 Boston, MA         0.674    0.353     1.28 
    ##  7 Buffalo, NY        0.521    0.288     0.936
    ##  8 Charlotte, NC      0.884    0.551     1.39 
    ##  9 Chicago, IL        0.410    0.336     0.501
    ## 10 Cincinnati, OH     0.400    0.231     0.667
    ## # ℹ 37 more rows
…
boot_summary <- boot_r2 %>%
  inner_join(boot_beta_ratio, by = "strap_id")

boot_summary
```

    ## # A tibble: 5,000 × 3
    ##    strap_id r.squared beta_ratio
    ##    <chr>        <dbl>      <dbl>
    ##  1 0001         0.936      -221.
    ##  2 0002         0.941      -172.
    ##  3 0003         0.939      -218.
    ##  4 0004         0.942      -170.
    ##  5 0005         0.939      -203.
    ##  6 0006         0.940      -198.
    ##  7 0007         0.944      -169.
    ##  8 0008         0.939      -195.
    ##  9 0009         0.940      -179.
    ## 10 0010         0.945      -228.
    ## # ℹ 4,990 more rows
…
